{
  "type": "service_account",
  "project_id": "send-notification-523b7",
  "private_key_id": "4412941386d78a05c2003b6869973dfe09139380",
  "private_key": "-----BEGIN PRIVATE KEY-----\nMIIEvQIBADANBgkqhkiG9w0BAQEFAASCBKcwggSjAgEAAoIBAQDMLz14HzRJAiF3\nwUUZn+bkZ/DNgQD9p0fLce3/N//SuFx4vqKRAfcTxfrn6jryHQIRLxW0IdHInWjo\n957s1I1PlnPOEEH5gASLXCiHW3hdHLGMk9F4hkCvhtjPYzdRsNpOrw9SfFX22AmN\n9LfqzjEPFEr5qq1dqHfAa6gRk6BTvuwTt1ZWXSOoekPVJAgY0clMZPFTdJaBFdYS\nMW03d+/vwMvENUahc7VSZRJVnWjVUzal2ztCijpbjzQb8dPlntK+9xnDKbyfy2Ax\nZyXR99GkJF+lTqivPh4f20oLU8yZrU4IbJb+W6mXsS/VfiejVFgc8eUnd2jpnJmm\nGlcXemnxAgMBAAECggEAE/JUeLDhsHUpFFQY3kM48Ny3kTfWQzFNifIgDCPqFamF\nfRUwd+Z/ftrDI1dGOWM8kbWuEtoP7p90AXg5Og0cnecGep2reEZ5iyyuV+THah80\nuBUzrCi/VnZfpUjdvVj/xpqC7m2vjyz1J/09X06Ty9ORbHjwNTtRMYbC1S69BZkv\nDR+pZuWJ9yMmHESCusJfqAKr4ZWbEYzTlJDtNogvTx9km2rRwAZpFGIlwsNvV4VI\n633wARNWnNcvCYzTci7HIgQsInx7WSDTPbgT3aNNyOCzGuVKnu9ICTxgr3uVGqbU\niWDQD7Q9eFVPxJAVZG1TrsrizNcXTbkJTZ4W3ObMvQKBgQD5Assdb+FwLpaj+cxB\nhWCDqQKujszsQhh9QWF/uTmx4piCsaZXAYuJwv1tZiy1lcjqMS5FRcOoVB1dz43s\nA6g1HwVTmRv0ZA5LtWMxxvdNvX5Wd6fxwOsqJwdhs/6HhbUhZdhlzfjE14UpZ1Rb\nbMvyrdkTaOstUl5XObD4QGOQNQKBgQDR6luXkx/4BmUrQtoFH4dylkkLRHh0m9I6\nFK2Wr3Ce/CpON+DPgI0wHefaeuS0h49Ru5s8vfQ8ocdP2zcr8snZTVI+fuEdTx1m\nwPVdcoJDQaWvyTNf3M3Z2bjex7Pu3nNsahCUsX+02sV3lee+IzX4hwkpPpjc0lGf\nIn3sjP0iTQKBgAMOCbfeu4FI0QhJ9DuJi1mSJTpG/jSXyv0eZDfQ6ehIw143F7dR\niYizH7DL5BiGMeTNnaez52aVQZb5COCwWsvsCYCxDCq/X32GSCVAL6CAhqBA74qD\nt17ZA7orHyBCf6pdOX5mPHsNudB8OAi3GPltMJCQZPI1ZHrldkpVX+NRAoGARHHv\nBYBSZzPmnvGAVzVNm95G2OathBAevxNo+n4f8ab1QGXV5rLa1nqZ09JIaljdMWBD\noM2rKm3xqCcpWSokCLe+fmQukLjwNEXse1jQApAQLz4igzpi4IquTe29zMA50HrR\nBzrNEjJXOsPlOUkP2wZkxU8E1tO5C3NardvW2e0CgYEA1Cix1Dff0PLpVmM2zTqQ\nr9596FsZQ6OKkbBpYlmIsPP2JMBs1ke+zaZoqqJu67Irw9wHbF2r/btFDOmf4voM\n3YcSgS3zBNSkI0dfKGPlwH9UlMEZFwDyQgunuIghlWpka4k3+kRH4hO6SC/06jdU\npLogUcbxPz2GF8LthFw8nOM=\n-----END PRIVATE KEY-----\n",
  "client_email": "firebase-adminsdk-tqj3p@send-notification-523b7.iam.gserviceaccount.com",
  "client_id": "102613343988707883200",
  "auth_uri": "https://accounts.google.com/o/oauth2/auth",
  "token_uri": "https://oauth2.googleapis.com/token",
  "auth_provider_x509_cert_url": "https://www.googleapis.com/oauth2/v1/certs",
  "client_x509_cert_url": "https://www.googleapis.com/robot/v1/metadata/x509/firebase-adminsdk-tqj3p%40send-notification-523b7.iam.gserviceaccount.com"
}
